Siim;Bobkov;123456
Juku;Malle;32145
Tere;vava;bwb
sfas;dgflw;2134
123456;65542;123354
Tere;Tore;123456
a331f3b6e0;a331f3b6e1;a331f3b6e2
e708d4de00;e708d4de01;e708d4de02
c5cc9081a0;c5cc9081a1;c5cc9081a2
c4a96e5b50;c4a96e5b51;c4a96e5b52
d5e4fe7350;d5e4fe7351;d5e4fe7352
d9b8a53a50;d9b8a53a51;d9b8a53a52
084f34d910;084f34d911;084f34d912
049138a770;049138a771;049138a772
8a292079f0;8a292079f1;8a292079f2
72207506e0;72207506e1;72207506e2
eesnimi;perenimi;telefon
terere;tewerrwer;123124345
1;2;3
1fe70d9680;1fe70d9681;1fe70d9682
3;123;5
dfasdfasdf;asdweras;12312356
46fb557000;46fb557001;
;;
fc1de132e0;fc1de132e1;fc1de132e2
60f24633d0;60f24633d1;
